00001,weight,""
00001,dimension1,""
00001,dimension2,""
00001,dimension3,""
00001,color,""
00001,manufacturerName,""
00001,mfgDate,""
00001,price,""
00001,instructions,""
00001,subInstruction1,""
00001,subInstruction2,""
00001,subInstruction3,""
00001,subInstruction4,""
00001,url,""
